{
	"friends": [
		"https://ai18n.tk/internet-girls-bar/zepam.json"
	],
	"collections": [
		{
			"name": "peers",
			"api": "https://ai18n.tk/cgi-bin/zepam-peers.cgi",
		},
		{
			"name": "timeline",
			"web": "https://ai18n.tk/zepam/",
			"api": "https://ai18n.tk/cgi-bin/zepam-timeline.cgi"
		}
	]
}
